-------------------------------------------------------------------------------
Test set: io.dino.ems.EmsApplicationTests
-------------------------------------------------------------------------------
Tests run: 1, Failures: 0, Errors: 0, Skipped: 0, Time elapsed: 4.267 s - in io.dino.ems.EmsApplicationTests
